dump.vcd
$date
Wed Aug 16 03:59:04 2023
$end
$version
Riviera-PRO Version 2022.04.117.8517
$end
$timescale
1 ns
$end

$scope module tb $end

$scope module vif $end
$var reg 1 ! presetn $end
$var reg 1 " pclk $end
$var reg 1 # psel $end
$var reg 1 $ penable $end
$var reg 1 % pwrite $end
$var reg 32 & paddr [31:0] $end
$var reg 32 ' pwdata [31:0] $end
$var reg 32 ( prdata [31:0] $end
$var reg 1 ) pready $end
$var reg 1 * pslverr $end
$upscope $end


$scope module dut $end
$var wire 1 + presetn $end
$var wire 1 , pclk $end
$var wire 1 - psel $end
$var wire 1 . penable $end
$var wire 1 / pwrite $end
$var wire 32 0 paddr [31:0] $end
$var wire 32 1 pwdata [31:0] $end
$var reg 32 2 prdata [31:0] $end
$var reg 1 3 pready $end
$var reg 1 4 pslverr $end
$var integer 32 5 state $end
$var integer 32 6 next_state $end
$upscope $end

$upscope $end

$enddefinitions $end
$dumpvars
0!
0"
x#
x$
x%
bx &
bx '
bx (
x)
x*
0+
0,
x-
x.
x/
bx 0
bx 1
bx 2
x3
x4
b0 5
b0 6
$end
#10
1"
1,
1!
b0 2
03
04
b0 (
0)
0*
1+
#20
0"
0,
#30
1"
1,
1#
0$
b101111 '
b111 &
1%
1/
b111 0
b101111 1
0.
1-
#40
0"
0,
#50
1"
1,
1$
1.
#60
0"
0,
#70
1"
1,
#80
0"
0,
#90
1"
1,
0#
0$
0%
0/
0.
0-
#100
0"
0,
#110
1"
1,
b1 5
#120
0"
0,
#130
1"
1,
1#
b111000 '
b101 &
b101 0
b111000 1
1-
#140
0"
0,
#150
1"
1,
1$
b10 5
13
1)
1.
#160
0"
0,
#170
1"
1,
b11 5
#180
0"
0,
#190
1"
1,
0#
0$
b1 5
03
0)
0.
0-
#200
0"
0,
#210
1"
1,
#220
0"
0,
#230
1"
1,
1#
b1001110 '
b1010 &
1%
1/
b1010 0
b1001110 1
1-
#240
0"
0,
#250
1"
1,
1$
b10 5
13
1)
1.
#260
0"
0,
#270
1"
1,
b11 5
#280
0"
0,
#290
1"
1,
0#
0$
0%
b1 5
03
0)
0/
0.
0-
#300
0"
0,
#310
1"
1,
#320
0"
0,
#330
1"
1,
1#
b110111 '
b110 &
b110 0
b110111 1
1-
#340
0"
0,
#350
1"
1,
1$
b10 5
13
1)
1.
#360
0"
0,
#370
1"
1,
b11 5
#380
0"
0,
#390
1"
1,
0#
0$
b1 5
03
0)
0.
0-
#400
0"
0,
#410
1"
1,
#420
0"
0,
#430
1"
1,
1#
b100011 '
b100 &
b100 0
b100011 1
1-
#440
0"
0,
#450
1"
1,
1$
b10 5
13
1)
1.
#460
0"
0,
#470
1"
1,
b11 5
#480
0"
0,
#490
1"
1,
0#
0$
b1 5
03
0)
0.
0-
#500
0"
0,
#510
1"
1,
#520
0"
0,
#530
1"
1,
1#
b11 '
b111 &
1%
1/
b111 0
b11 1
1-
#540
0"
0,
#550
1"
1,
1$
b10 5
13
1)
1.
#560
0"
0,
#570
1"
1,
b11 5
#580
0"
0,
#590
1"
1,
0#
0$
0%
b1 5
03
0)
0/
0.
0-
#600
0"
0,
#610
1"
1,
#620
0"
0,
#630
1"
1,
1#
b100001 '
b1001 &
1%
1/
b1001 0
b100001 1
1-
#640
0"
0,
#650
1"
1,
1$
b10 5
13
1)
1.
#660
0"
0,
#670
1"
1,
b11 5
#680
0"
0,
#690
1"
1,
0#
0$
0%
b1 5
03
0)
0/
0.
0-
#700
0"
0,
#710
1"
1,
#720
0"
0,
#730
1"
1,
1#
b1011 '
b1011 1
1-
#740
0"
0,
#750
1"
1,
1$
b10 5
13
1)
1.
#760
0"
0,
#770
1"
1,
b100001 2
b11 5
b100001 (
#780
0"
0,
#790
1"
1,
0#
0$
b1 5
03
0)
0.
0-
#800
0"
0,
#810
1"
1,
#820
0"
0,
#830
1"
1,
1#
b101 '
b101 &
1%
1/
b101 0
b101 1
1-
#840
0"
0,
#850
1"
1,
1$
b10 5
13
1)
1.
#860
0"
0,
#870
1"
1,
b11 5
#880
0"
0,
#890
1"
1,
0#
0$
0%
b1 5
03
0)
0/
0.
0-
#900
0"
0,
#910
1"
1,
#920
0"
0,
#930
1"
1,
1#
b111010 '
b111010 1
1-
#940
0"
0,
#950
1"
1,
1$
b10 5
13
1)
1.
#960
0"
0,
#970
1"
1,
b101 2
b11 5
b101 (
#980
0"
0,
#990
1"
1,
0#
0$
b1 5
03
0)
0.
0-
#1000
0"
0,
#1010
1"
1,
#1020
0"
0,
#1030
1"
1,
1#
b100 '
b110 &
1%
1/
b110 0
b100 1
1-
#1040
0"
0,
#1050
1"
1,
1$
b10 5
13
1)
1.
#1060
0"
0,
#1070
1"
1,
b11 5
#1080
0"
0,
#1090
1"
1,
0#
0$
0%
b1 5
03
0)
0/
0.
0-
#1100
0"
0,
#1110
1"
1,
#1120
0"
0,
#1130
1"
1,
1#
b1010111 '
b1001 &
b1001 0
b1010111 1
1-
#1140
0"
0,
#1150
1"
1,
1$
b10 5
13
1)
1.
#1160
0"
0,
#1170
1"
1,
b100001 2
b11 5
b100001 (
#1180
0"
0,
#1190
1"
1,
0#
0$
b1 5
03
0)
0.
0-
#1200
0"
0,
#1210
1"
1,
#1220
0"
0,
#1230
1"
1,
1#
b10100 '
b110 &
b110 0
b10100 1
1-
#1240
0"
0,
#1250
1"
1,
1$
b10 5
13
1)
1.
#1260
0"
0,
#1270
1"
1,
b100 2
b11 5
b100 (
#1280
0"
0,
#1290
1"
1,
0#
0$
b1 5
03
0)
0.
0-
#1300
0"
0,
#1310
1"
1,
#1320
0"
0,
#1330
1"
1,
1#
b11011 '
b1000 &
1%
1/
b1000 0
b11011 1
1-
#1340
0"
0,
#1350
1"
1,
1$
b10 5
13
1)
1.
#1360
0"
0,
#1370
1"
1,
b11 5
#1380
0"
0,
#1390
1"
1,
0#
0$
0%
b1 5
03
0)
0/
0.
0-
#1400
0"
0,
#1410
1"
1,
#1420
0"
0,
#1430
1"
1,
1#
b111111 '
b101 &
b101 0
b111111 1
1-
#1440
0"
0,
#1450
1"
1,
1$
b10 5
13
1)
1.
#1460
0"
0,
#1470
1"
1,
b101 2
b11 5
b101 (
#1480
0"
0,
#1490
1"
1,
0#
0$
b1 5
03
0)
0.
0-
#1500
0"
0,
#1510
1"
1,
#1520
0"
0,
#1530
1"
1,
1#
b1001110 '
1%
1/
b1001110 1
1-
#1540
0"
0,
#1550
1"
1,
1$
b10 5
13
1)
1.
#1560
0"
0,
#1570
1"
1,
b11 5
#1580
0"
0,
#1590
1"
1,
0#
0$
0%
b1 5
03
0)
0/
0.
0-
#1600
0"
0,
#1610
1"
1,
#1620
0"
0,
#1630
1"
1,
1#
b1100001 '
b1000 &
1%
1/
b1000 0
b1100001 1
1-
#1640
0"
0,
#1650
1"
1,
1$
b10 5
13
1)
1.
#1660
0"
0,
#1670
1"
1,
b11 5
#1680
0"
0,
#1690
1"
1,
0#
0$
0%
b1 5
03
0)
0/
0.
0-
#1700
0"
0,
#1710
1"
1,
#1720
0"
0,
#1730
1"
1,
1#
b10001 '
b100 &
b100 0
b10001 1
1-
#1740
0"
0,
#1750
1"
1,
1$
b10 5
13
1)
1.
#1760
0"
0,
#1770
1"
1,
b0 2
b11 5
b0 (
#1780
0"
0,
#1790
1"
1,
0#
0$
b1 5
03
0)
0.
0-
#1800
0"
0,
#1810
1"
1,
#1820
0"
0,
#1830
1"
1,
1#
b1000111 '
b1010 &
b1010 0
b1000111 1
1-
#1840
0"
0,
#1850
1"
1,
1$
b10 5
13
1)
1.
#1860
0"
0,
#1870
1"
1,
b1001110 2
b11 5
b1001110 (
#1880
0"
0,
#1890
1"
1,
0#
0$
b1 5
03
0)
0.
0-
#1900
0"
0,
#1910
1"
1,
#1920
0"
0,
#1930
1"
1,
1#
b1010101 '
b1001 &
1%
1/
b1001 0
b1010101 1
1-
#1940
0"
0,
#1950
1"
1,
1$
b10 5
13
1)
1.
#1960
0"
0,
#1970
1"
1,
b11 5
#1980
0"
0,
#1990
1"
1,
0#
0$
0%
b1 5
03
0)
0/
0.
0-
